World Happiness Report Data
…
1. Gather Data

Welcome to the first step in the data pipeline! We cant perform any operations or conduct any analysis until we have data to work with. Because we are strong, independent data scientists, we do not require a CSV file to be provided beforehand. Instead, we obtain our data through a process called HTML scraping. HTML scraping involves using pre-existing html files in webpages to extract the data we are interested in.

url <- "https://en.wikipedia.org/wiki/World_Happiness_Report"
df_2018 <- read_html(url) %>% 
        #look for html node table
        html_nodes("table") %>% 
        #extract 5th occurence of html table (Wikipedia treats things as tables that shouldn't be tables)
        extract2(5) %>%
        html_table() %>% 
        as.data.frame()
as_tibble(df_2018)

## # A tibble: 156 x 9
##    `Overall Rank` Country     Score `GDP per capita` `Social support`
##             <int> <chr>       <dbl>            <dbl>            <dbl>
##  1              1 Finland      7.63             1.30             1.59
##  2              2 Norway       7.59             1.46             1.58
##  3              3 Denmark      7.56             1.35             1.59
##  4              4 Iceland      7.50             1.34             1.64
##  5              5 Switzerland  7.49             1.42             1.55
##  6              6 Netherlands  7.44             1.36             1.49
##  7              7 Canada       7.33             1.33             1.53
##  8              8 New Zealand  7.32             1.27             1.60
##  9              9 Sweden       7.31             1.36             1.50
## 10             10 Australia    7.27             1.34             1.57
## # ... with 146 more rows, and 4 more variables: `Healthy life
## #   expectancy` <dbl>, `Freedom to make life choices` <dbl>,
## #   Generosity <dbl>, `Perceptions of corruption` <chr>
…
Tidying data is a process where data scientists structure a dataset to make it easier to perform analysis and operations on the data. Hidden in this data frame is a single NA, or missing entry for our Perceptions of Corruption column for the entity identifying as the United Arab Emirates. Unfortunately, I have no friends in the United Nations and so I never got an answer to why this entry was missing, but thats okay, we will continue on using plan B, imputing data. Imputing data requires us to insert a value for the missing entry in an unbiased way. We will accomplish this by calculating the mean of Perceptions of Corruption and inserting that value as our missing data. This will ensure the central tendency of the data is the same.

Another checkpoint for tidy data is ensuring that column types match their values. Everything is dandy up until Perceptions of Corruption. This column is encoded as chr vector or string which means all of its values will also be a string. This is detrimental to our methods because we have to compute the mean of the column to use in imputing for our missing data and the mean of strings makes no sense. Lets convert every value in the column to a double.

df_2018 <- 
  df_2018 %>% 
  #rename columns so that they are easier on the eye
  set_colnames(c("Rank", "Country","Score","GDP", "Social_Support","Health_Expectancy","Freedom","Generosity", "Perceptions_Of_Corruption"))
  #type convert from character vector to numeric double
  df_2018$Perceptions_Of_Corruption <- as.numeric(as.character(df_2018$Perceptions_Of_Corruption))
  #impute mean value for missing entry
  df_2018[is.na(df_2018)] <- mean(df_2018$Perceptions_Of_Corruption, na.rm = TRUE)
as_tibble(df_2018)

## # A tibble: 156 x 9
##     Rank Country     Score   GDP Social_Support Health_Expectancy Freedom
##    <int> <chr>       <dbl> <dbl>          <dbl>             <dbl>   <dbl>
##  1     1 Finland      7.63  1.30           1.59             0.874   0.681
##  2     2 Norway       7.59  1.46           1.58             0.861   0.686
##  3     3 Denmark      7.56  1.35           1.59             0.868   0.683
##  4     4 Iceland      7.50  1.34           1.64             0.914   0.677
##  5     5 Switzerland  7.49  1.42           1.55             0.927   0.660
##  6     6 Netherlands  7.44  1.36           1.49             0.878   0.638
##  7     7 Canada       7.33  1.33           1.53             0.896   0.653
##  8     8 New Zealand  7.32  1.27           1.60             0.876   0.669
##  9     9 Sweden       7.31  1.36           1.50             0.913   0.659
## 10    10 Australia    7.27  1.34           1.57             0.910   0.647
## # ... with 146 more rows, and 2 more variables: Generosity <dbl>,
## #   Perceptions_Of_Corruption <dbl>
…
